<?xml version="1.0" encoding="UTF-8" standalone="no"?>
<!-- Created with Inkscape (http://www.inkscape.org/) -->

<svg
   xmlns:dc="http://purl.org/dc/elements/1.1/"
   xmlns:cc="http://creativecommons.org/ns#"
   xmlns:rdf="http://www.w3.org/1999/02/22-rdf-syntax-ns#"
   xmlns:svg="http://www.w3.org/2000/svg"
   xmlns="http://www.w3.org/2000/svg"
   xmlns:sodipodi="http://sodipodi.sourceforge.net/DTD/sodipodi-0.dtd"
   xmlns:inkscape="http://www.inkscape.org/namespaces/inkscape"
   width="210mm"
   height="297mm"
   viewBox="0 0 210 297"
   version="1.1"
   id="svg8"
   inkscape:version="0.92.3 (2405546, 2018-03-11)"
   sodipodi:docname="anatomy.svg">
  <defs
     id="defs2">
    <marker
       inkscape:isstock="true"
       style="overflow:visible;"
       id="marker9635"
       refX="0.0"
       refY="0.0"
       orient="auto"
       inkscape:stockid="Arrow1Mend">
      <path
         transform="scale(0.4) rotate(180) translate(10,0)"
         style="fill-rule:evenodd;stroke:#008000;stroke-width:1pt;stroke-opacity:1;fill:#008000;fill-opacity:1"
         d="M 0.0,0.0 L 5.0,-5.0 L -12.5,0.0 L 5.0,5.0 L 0.0,0.0 z "
         id="path9633" />
    </marker>
    <marker
       inkscape:stockid="Arrow1Mend"
       orient="auto"
       refY="0.0"
       refX="0.0"
       id="marker8875"
       style="overflow:visible;"
       inkscape:isstock="true"
       inkscape:collect="always">
      <path
         id="path8873"
         d="M 0.0,0.0 L 5.0,-5.0 L -12.5,0.0 L 5.0,5.0 L 0.0,0.0 z "
         style="fill-rule:evenodd;stroke:#008000;stroke-width:1pt;stroke-opacity:1;fill:#008000;fill-opacity:1"
         transform="scale(0.4) rotate(180) translate(10,0)" />
    </marker>
    <marker
       inkscape:isstock="true"
       style="overflow:visible;"
       id="marker6988"
       refX="0.0"
       refY="0.0"
       orient="auto"
       inkscape:stockid="Arrow1Mend"
       inkscape:collect="always">
      <path
         transform="scale(0.4) rotate(180) translate(10,0)"
         style="fill-rule:evenodd;stroke:#008000;stroke-width:1pt;stroke-opacity:1;fill:#008000;fill-opacity:1"
         d="M 0.0,0.0 L 5.0,-5.0 L -12.5,0.0 L 5.0,5.0 L 0.0,0.0 z "
         id="path6986" />
    </marker>
    <marker
       inkscape:isstock="true"
       style="overflow:visible;"
       id="marker6330"
       refX="0.0"
       refY="0.0"
       orient="auto"
       inkscape:stockid="Arrow1Mend">
      <path
         transform="scale(0.4) rotate(180) translate(10,0)"
         style="fill-rule:evenodd;stroke:#008000;stroke-width:1pt;stroke-opacity:1;fill:#008000;fill-opacity:1"
         d="M 0.0,0.0 L 5.0,-5.0 L -12.5,0.0 L 5.0,5.0 L 0.0,0.0 z "
         id="path6328" />
    </marker>
    <marker
       inkscape:isstock="true"
       style="overflow:visible;"
       id="marker3880"
       refX="0.0"
       refY="0.0"
       orient="auto"
       inkscape:stockid="Arrow1Mend">
      <path
         transform="scale(0.4) rotate(180) translate(10,0)"
         style="fill-rule:evenodd;stroke:#008000;stroke-width:1pt;stroke-opacity:1;fill:#008000;fill-opacity:1"
         d="M 0.0,0.0 L 5.0,-5.0 L -12.5,0.0 L 5.0,5.0 L 0.0,0.0 z "
         id="path3878" />
    </marker>
    <marker
       inkscape:stockid="Arrow1Lend"
       orient="auto"
       refY="0.0"
       refX="0.0"
       id="marker2872"
       style="overflow:visible;"
       inkscape:isstock="true">
      <path
         id="path2870"
         d="M 0.0,0.0 L 5.0,-5.0 L -12.5,0.0 L 5.0,5.0 L 0.0,0.0 z "
         style="fill-rule:evenodd;stroke:#000000;stroke-width:1pt;stroke-opacity:1;fill:#000000;fill-opacity:1"
         transform="scale(0.8) rotate(180) translate(12.5,0)" />
    </marker>
    <marker
       inkscape:stockid="Arrow1Lend"
       orient="auto"
       refY="0.0"
       refX="0.0"
       id="marker2814"
       style="overflow:visible;"
       inkscape:isstock="true">
      <path
         id="path2812"
         d="M 0.0,0.0 L 5.0,-5.0 L -12.5,0.0 L 5.0,5.0 L 0.0,0.0 z "
         style="fill-rule:evenodd;stroke:#000000;stroke-width:1pt;stroke-opacity:1;fill:#000000;fill-opacity:1"
         transform="scale(0.8) rotate(180) translate(12.5,0)" />
    </marker>
    <marker
       inkscape:stockid="Arrow1Mstart"
       orient="auto"
       refY="0.0"
       refX="0.0"
       id="Arrow1Mstart"
       style="overflow:visible"
       inkscape:isstock="true">
      <path
         id="path946"
         d="M 0.0,0.0 L 5.0,-5.0 L -12.5,0.0 L 5.0,5.0 L 0.0,0.0 z "
         style="fill-rule:evenodd;stroke:#008000;stroke-width:1pt;stroke-opacity:1;fill:#008000;fill-opacity:1"
         transform="scale(0.4) translate(10,0)" />
    </marker>
    <marker
       inkscape:stockid="Arrow1Mend"
       orient="auto"
       refY="0.0"
       refX="0.0"
       id="Arrow1Mend"
       style="overflow:visible;"
       inkscape:isstock="true"
       inkscape:collect="always">
      <path
         id="path949"
         d="M 0.0,0.0 L 5.0,-5.0 L -12.5,0.0 L 5.0,5.0 L 0.0,0.0 z "
         style="fill-rule:evenodd;stroke:#008000;stroke-width:1pt;stroke-opacity:1;fill:#008000;fill-opacity:1"
         transform="scale(0.4) rotate(180) translate(10,0)" />
    </marker>
    <marker
       inkscape:isstock="true"
       style="overflow:visible"
       id="marker1416"
       refX="0.0"
       refY="0.0"
       orient="auto"
       inkscape:stockid="DotL">
      <path
         transform="scale(0.8) translate(7.4, 1)"
         style="fill-rule:evenodd;stroke:#000000;stroke-width:1pt;stroke-opacity:1;fill:#000000;fill-opacity:1"
         d="M -2.5,-1.0 C -2.5,1.7600000 -4.7400000,4.0 -7.5,4.0 C -10.260000,4.0 -12.5,1.7600000 -12.5,-1.0 C -12.5,-3.7600000 -10.260000,-6.0 -7.5,-6.0 C -4.7400000,-6.0 -2.5,-3.7600000 -2.5,-1.0 z "
         id="path1414" />
    </marker>
    <marker
       inkscape:stockid="DotL"
       orient="auto"
       refY="0.0"
       refX="0.0"
       id="DotL"
       style="overflow:visible"
       inkscape:isstock="true"
       inkscape:collect="always">
      <path
         id="path1001"
         d="M -2.5,-1.0 C -2.5,1.7600000 -4.7400000,4.0 -7.5,4.0 C -10.260000,4.0 -12.5,1.7600000 -12.5,-1.0 C -12.5,-3.7600000 -10.260000,-6.0 -7.5,-6.0 C -4.7400000,-6.0 -2.5,-3.7600000 -2.5,-1.0 z "
         style="fill-rule:evenodd;stroke:#008000;stroke-width:1pt;stroke-opacity:1;fill:#008000;fill-opacity:1"
         transform="scale(0.8) translate(7.4, 1)" />
    </marker>
    <marker
       inkscape:stockid="DotS"
       orient="auto"
       refY="0.0"
       refX="0.0"
       id="DotS"
       style="overflow:visible"
       inkscape:isstock="true">
      <path
         id="path1007"
         d="M -2.5,-1.0 C -2.5,1.7600000 -4.7400000,4.0 -7.5,4.0 C -10.260000,4.0 -12.5,1.7600000 -12.5,-1.0 C -12.5,-3.7600000 -10.260000,-6.0 -7.5,-6.0 C -4.7400000,-6.0 -2.5,-3.7600000 -2.5,-1.0 z "
         style="fill-rule:evenodd;stroke:#000000;stroke-width:1pt;stroke-opacity:1;fill:#000000;fill-opacity:1"
         transform="scale(0.2) translate(7.4, 1)" />
    </marker>
    <marker
       inkscape:stockid="Arrow1Lend"
       orient="auto"
       refY="0.0"
       refX="0.0"
       id="Arrow1Lend"
       style="overflow:visible;"
       inkscape:isstock="true">
      <path
         id="path943"
         d="M 0.0,0.0 L 5.0,-5.0 L -12.5,0.0 L 5.0,5.0 L 0.0,0.0 z "
         style="fill-rule:evenodd;stroke:#000000;stroke-width:1pt;stroke-opacity:1;fill:#000000;fill-opacity:1"
         transform="scale(0.8) rotate(180) translate(12.5,0)" />
    </marker>
    <clipPath
       clipPathUnits="userSpaceOnUse"
       id="clipPath882">
      <rect
         style="fill:#ffff00;stroke:#000000;stroke-width:0.52916664;stroke-miterlimit:4;stroke-dasharray:none"
         id="rect884"
         width="164.79761"
         height="214.69048"
         x="-297.08929"
         y="116.32738" />
    </clipPath>
  </defs>
  <sodipodi:namedview
     id="base"
     pagecolor="#ffffff"
     bordercolor="#666666"
     borderopacity="1.0"
     inkscape:pageopacity="0.0"
     inkscape:pageshadow="2"
     inkscape:zoom="0.49497475"
     inkscape:cx="294.2637"
     inkscape:cy="645.91129"
     inkscape:document-units="mm"
     inkscape:current-layer="layer1"
     showgrid="false"
     inkscape:window-width="1018"
     inkscape:window-height="850"
     inkscape:window-x="623"
     inkscape:window-y="193"
     inkscape:window-maximized="0" />
  <metadata
     id="metadata5">
    <rdf:RDF>
      <cc:Work
         rdf:about="">
        <dc:format>image/svg+xml</dc:format>
        <dc:type
           rdf:resource="http://purl.org/dc/dcmitype/StillImage" />
        <dc:title></dc:title>
      </cc:Work>
    </rdf:RDF>
  </metadata>
  <g
     inkscape:label="Layer 1"
     inkscape:groupmode="layer"
     id="layer1">
    <g
       id="g917"
       transform="translate(-50.648809,-70.303571)">
      <path
         sodipodi:nodetypes="ccccccccccscccccccscccccccccccccccscccccscscsccsccccccsccccccccccccscccccccccccccccccccccccssccccccscscscscsssscscscscscscsssscsccccccccsssssccccccscccccccccscccscccsssssscscscscsccssscccsccscccssscccsscsccsssssscccssccccsscscscscscsssscscsccscccsssscssssssssscscccsscccsscccccccscscscscccssscccsccscccsssccssssscsccsccsccscccsssssssccs"
         style="fill:#ef4437;stroke-width:0.26458332"
         d="m 144.38689,289.27258 c -10.49198,-2.10441 -18.87367,-10.04255 -21.62009,-20.47594 -0.88868,-3.37603 -1.00586,-9.33622 -0.24718,-12.57324 0.95134,-4.05908 2.60927,-7.684 4.92151,-10.7605 1.59625,-2.12386 4.77805,-5.18263 6.75989,-6.49848 l 1.46939,-0.97563 -0.0735,-3.46336 -0.0735,-3.46337 -3.42911,-0.0745 c -2.33603,-0.0507 -3.49441,-0.17724 -3.63397,-0.39687 -0.11267,-0.17735 -0.20486,-1.0368 -0.20486,-1.90992 0,-0.87313 0.0922,-1.73258 0.20486,-1.90993 0.13956,-0.21963 1.29794,-0.34612 3.63397,-0.39687 l 3.42911,-0.0744 v -4.10105 -4.10104 l -3.42911,-0.0745 c -2.33603,-0.0507 -3.49441,-0.17725 -3.63397,-0.39688 -0.11267,-0.17735 -0.20486,-1.03679 -0.20486,-1.90992 0,-0.87312 0.0922,-1.73257 0.20486,-1.90992 0.13956,-0.21963 1.29794,-0.34613 3.63397,-0.39687 l 3.42911,-0.0745 v -4.10104 -4.10104 l -3.42911,-0.0744 c -2.33603,-0.0508 -3.49441,-0.17725 -3.63397,-0.39688 -0.26607,-0.41875 -0.26607,-3.40109 0,-3.81984 0.13956,-0.21963 1.29794,-0.34613 3.63397,-0.39688 l 3.42911,-0.0744 v -4.10104 -4.10104 l -3.42911,-0.0745 c -2.33603,-0.0507 -3.49441,-0.17724 -3.63397,-0.39687 -0.26607,-0.41876 -0.26607,-3.40109 0,-3.81984 0.13956,-0.21963 1.29794,-0.34613 3.63397,-0.39688 l 3.42911,-0.0745 v -4.10104 -4.10105 l -3.42911,-0.0744 c -2.33603,-0.0508 -3.49441,-0.17724 -3.63397,-0.39687 -0.11267,-0.17735 -0.20486,-1.0368 -0.20486,-1.90993 0,-0.87312 0.0922,-1.73257 0.20486,-1.90992 0.13956,-0.21963 1.29794,-0.34612 3.63397,-0.39687 l 3.42911,-0.0745 0.1714,-5.95312 c 0.12841,-4.46003 0.28405,-6.31812 0.62055,-7.40833 1.4706,-4.76462 4.96897,-8.25977 9.64097,-9.63205 1.86615,-0.54814 5.57843,-0.54814 7.44458,0 4.63405,1.36115 8.05727,4.76871 9.67625,9.63205 0.45894,1.37858 0.48858,3.44357 0.56299,39.22183 l 0.0786,37.76662 1.43359,0.91707 c 3.16866,2.02698 7.1047,6.38361 8.97691,9.93614 2.38149,4.51892 3.20979,8.01516 3.1655,13.36146 -0.0281,3.39682 -0.1342,4.34559 -0.73594,6.58381 -2.84226,10.57201 -11.19679,18.39746 -21.81019,20.42895 -2.39117,0.45768 -8.02731,0.44514 -10.36162,-0.023 z m 10.98021,-4.88545 c 8.55358,-2.20673 15.11936,-9.07343 16.95504,-17.73213 0.48247,-2.27574 0.47362,-6.91222 -0.0176,-9.24762 -1.47384,-7.00635 -5.71814,-12.49531 -12.53448,-16.21025 l -0.8225,-0.44828 -0.0704,-39.10693 -0.0704,-39.10695 -0.70649,-1.50719 c -0.90295,-1.92633 -2.74636,-3.76749 -4.66548,-4.65977 -1.25776,-0.58478 -1.87941,-0.70075 -3.75616,-0.70075 -1.87675,0 -2.4984,0.11597 -3.75616,0.70075 -1.91912,0.89228 -3.76253,2.73344 -4.66548,4.65977 l -0.70648,1.50719 -0.0704,39.10695 -0.0704,39.10693 -0.82249,0.44828 c -6.81635,3.71494 -11.06065,9.2039 -12.53448,16.21025 -0.49127,2.3354 -0.50012,6.97188 -0.0177,9.24762 2.35311,11.09929 12.22381,18.84457 23.43734,18.39068 1.57656,-0.0638 3.69359,-0.34864 4.89479,-0.65855 z m -8.01876,-3.20111 c -4.09571,-0.54301 -7.77422,-2.26907 -10.74154,-5.04021 -10.05027,-9.38585 -7.61209,-25.45045 4.78146,-31.50386 l 2.7309,-1.33384 0.0677,-21.072 0.0677,-21.07197 h 5.42396 5.42396 l 0.0677,21.07197 0.0677,21.072 2.81357,1.37422 c 2.44182,1.19266 3.11455,1.67711 5.09165,3.66657 2.6043,2.62056 3.71394,4.35848 4.88266,7.64717 0.77238,2.17342 0.82379,2.54921 0.82379,6.02223 0,3.47303 -0.0514,3.84882 -0.82379,6.02224 -1.16722,3.28448 -2.27967,5.02893 -4.85353,7.6109 -1.69288,1.6982 -2.78628,2.53439 -4.42206,3.38177 -3.53527,1.83139 -7.78053,2.63295 -11.40191,2.15281 z m -35.9141,-50.37651 c -0.57545,-0.57547 -0.64943,-0.87823 -0.64943,-2.65787 0,-1.77964 0.074,-2.0824 0.64943,-2.65787 0.35719,-0.35719 0.95791,-0.64942 1.33495,-0.64942 0.37703,0 0.97775,0.29223 1.33494,0.64942 0.57545,0.57547 0.64943,0.87823 0.64943,2.65787 0,1.77964 -0.074,2.0824 -0.64943,2.65787 -0.35719,0.35719 -0.95791,0.64942 -1.33494,0.64942 -0.37704,0 -0.97776,-0.29223 -1.33495,-0.64942 z m 2.20807,-0.46183 c 0.18732,-0.18732 0.3175,-1.08773 0.3175,-2.19604 0,-2.00869 -0.2479,-2.51354 -1.23423,-2.51354 -0.81137,0 -1.14702,0.73551 -1.14702,2.51354 0,0.81949 0.12325,1.72029 0.27389,2.00176 0.30616,0.57208 1.30379,0.68035 1.78986,0.19428 z m 5.46485,0.46183 c -0.57545,-0.57547 -0.64943,-0.87823 -0.64943,-2.65787 0,-1.77964 0.074,-2.0824 0.64943,-2.65787 0.35719,-0.35719 0.95791,-0.64942 1.33494,-0.64942 0.37703,0 0.97776,0.29223 1.33494,0.64942 0.57545,0.57547 0.64944,0.87823 0.64944,2.65787 0,1.77964 -0.074,2.0824 -0.64944,2.65787 -0.35718,0.35719 -0.95791,0.64942 -1.33494,0.64942 -0.37703,0 -0.97775,-0.29223 -1.33494,-0.64942 z m 2.20807,-0.46183 c 0.18732,-0.18732 0.3175,-1.08773 0.3175,-2.19604 0,-2.00869 -0.2479,-2.51354 -1.23424,-2.51354 -0.81137,0 -1.14701,0.73551 -1.14701,2.51354 0,0.81949 0.12325,1.72029 0.27389,2.00176 0.30616,0.57208 1.30379,0.68035 1.78986,0.19428 z m -13.76139,-1.58208 -0.0763,-2.46604 -0.72761,-0.0837 c -0.94755,-0.10903 -0.92393,-0.43222 0.0614,-0.84037 1.4699,-0.60883 1.61886,-0.3356 1.53511,2.81594 -0.0511,1.92166 -0.17785,2.86165 -0.3957,2.93393 -0.23224,0.077 -0.34159,-0.57311 -0.39688,-2.35974 z m 8.78722,2.16416 c 0,-0.14552 0.11906,-0.26458 0.26458,-0.26458 0.14552,0 0.26459,0.11906 0.26459,0.26458 0,0.14552 -0.11907,0.26459 -0.26459,0.26459 -0.14552,0 -0.26458,-0.11907 -0.26458,-0.26459 z m -13.49375,-2.08835 c 0,-0.35102 0.79744,-0.59195 1.36403,-0.41214 0.27266,0.0865 0.42745,0.26783 0.34399,0.40288 -0.19438,0.31451 -1.70802,0.32271 -1.70802,0.009 z m 9.62133,-10.65652 c -0.79349,-0.3842 -1.15466,-1.32993 -1.15466,-3.02342 0,-1.87693 0.53257,-2.91772 1.61461,-3.15537 1.75394,-0.38523 2.77244,1.27948 2.46941,4.03617 -0.21992,2.00059 -1.41598,2.87541 -2.92936,2.14262 z m 1.94416,-1.27804 c 0.42762,-0.8495 0.42737,-2.59085 -5.3e-4,-3.43959 -0.41389,-0.82102 -1.48218,-1.02356 -1.95903,-0.37142 -0.40848,0.55862 -0.45756,2.95278 -0.0808,3.94364 0.34904,0.91803 1.55081,0.83992 2.04036,-0.13263 z m 5.72876,1.27804 c -0.79349,-0.3842 -1.15467,-1.32993 -1.15467,-3.02342 0,-1.87693 0.53258,-2.91772 1.61461,-3.15537 1.75394,-0.38523 2.77245,1.27948 2.46942,4.03617 -0.21992,2.00059 -1.41598,2.87541 -2.92936,2.14262 z m 1.94416,-1.27804 c 0.42761,-0.8495 0.42737,-2.59085 -5.3e-4,-3.43959 -0.41389,-0.82102 -1.48218,-1.02356 -1.95903,-0.37142 -0.40849,0.55862 -0.45757,2.95278 -0.0808,3.94364 0.34903,0.91803 1.55081,0.83992 2.04036,-0.13263 z m -5.21549,1.05833 c 0,-0.14552 0.11906,-0.26458 0.26458,-0.26458 0.14552,0 0.26458,0.11906 0.26458,0.26458 0,0.14552 -0.11906,0.26458 -0.26458,0.26458 -0.14552,0 -0.26458,-0.11906 -0.26458,-0.26458 z m -5.1714,-13.08483 c -0.57545,-0.57547 -0.64944,-0.87824 -0.64944,-2.65788 0,-1.77964 0.074,-2.0824 0.64944,-2.65787 0.35718,-0.35719 0.95791,-0.64942 1.33494,-0.64942 0.37703,0 0.97775,0.29223 1.33494,0.64942 0.57545,0.57547 0.64943,0.87823 0.64943,2.65787 0,1.77964 -0.074,2.08241 -0.64943,2.65788 -0.35719,0.35718 -0.95791,0.64941 -1.33494,0.64941 -0.37703,0 -0.97776,-0.29223 -1.33494,-0.64941 z m 2.20806,-0.46183 c 0.18732,-0.18733 0.3175,-1.08773 0.3175,-2.19605 0,-2.00869 -0.24789,-2.51354 -1.23423,-2.51354 -0.81137,0 -1.14702,0.73552 -1.14702,2.51354 0,0.8195 0.12325,1.7203 0.27389,2.00176 0.30616,0.57208 1.30379,0.68035 1.78986,0.19429 z m 5.46485,0.46183 c -0.57545,-0.57547 -0.64943,-0.87824 -0.64943,-2.65788 0,-1.77964 0.074,-2.0824 0.64943,-2.65787 0.77903,-0.77901 1.71308,-0.83137 2.56241,-0.14364 0.56958,0.46125 0.62462,0.70808 0.62462,2.80151 0,2.09344 -0.055,2.34027 -0.62462,2.80152 -0.84933,0.68773 -1.78338,0.63537 -2.56241,-0.14364 z m 2.25168,-0.65612 c 0.15064,-0.28146 0.27389,-1.18226 0.27389,-2.00176 0,-1.77802 -0.33565,-2.51354 -1.14702,-2.51354 -0.98633,0 -1.23423,0.50485 -1.23423,2.51354 0,1.10832 0.13018,2.00872 0.3175,2.19605 0.48607,0.48606 1.4837,0.37779 1.78986,-0.19429 z m -13.83722,0.86455 c -0.097,-0.097 -0.17639,-1.22809 -0.17639,-2.51354 0,-2.31656 -0.006,-2.33714 -0.66146,-2.33714 -0.85262,0 -0.84666,-0.35983 0.0125,-0.75129 1.40007,-0.63791 1.44276,-0.55694 1.44276,2.73566 0,2.78419 -0.12396,3.35971 -0.61736,2.86631 z m 8.55486,-0.0882 c 0,-0.14552 0.17859,-0.26458 0.39688,-0.26458 0.21828,0 0.39687,0.11906 0.39687,0.26458 0,0.14552 -0.17859,0.26458 -0.39687,0.26458 -0.21829,0 -0.39688,-0.11906 -0.39688,-0.26458 z m -10.31875,-12.86134 c 0,-0.23427 0.59551,-1.07749 1.32335,-1.87386 0.72783,-0.7964 1.39597,-1.73736 1.48475,-2.09106 0.32738,-1.30442 -1.20097,-1.94577 -2.14664,-0.90082 -0.56242,0.62145 -0.92604,0.68095 -0.92604,0.1515 0,-0.4888 1.25362,-1.47442 1.87531,-1.47442 0.86237,0 1.83813,0.60629 1.99746,1.24113 0.21359,0.85101 -0.29347,1.95922 -1.37694,3.00937 -1.20191,1.16494 -1.1589,1.52144 0.19558,1.62126 0.60716,0.0447 1.15286,0.23019 1.21268,0.41209 0.0801,0.24368 -0.38446,0.33073 -1.76538,0.33073 -1.54631,0 -1.87413,-0.0745 -1.87413,-0.42592 z m 5.67652,-0.2235 c -0.57545,-0.57547 -0.64944,-0.87823 -0.64944,-2.65787 0,-1.77964 0.074,-2.0824 0.64944,-2.65787 0.35718,-0.35719 0.95791,-0.64942 1.33494,-0.64942 0.37703,0 0.97775,0.29223 1.33494,0.64942 0.57545,0.57547 0.64943,0.87823 0.64943,2.65787 0,1.77964 -0.074,2.0824 -0.64943,2.65787 -0.35719,0.35719 -0.95791,0.64942 -1.33494,0.64942 -0.37703,0 -0.97776,-0.29223 -1.33494,-0.64942 z m 2.20806,-0.46183 c 0.18732,-0.18732 0.3175,-1.08773 0.3175,-2.19604 0,-2.00869 -0.24789,-2.51354 -1.23423,-2.51354 -0.81137,0 -1.14702,0.73551 -1.14702,2.51354 0,0.81949 0.12325,1.72029 0.27389,2.00176 0.30616,0.57208 1.30379,0.68035 1.78986,0.19428 z m 5.46485,0.46183 c -0.57545,-0.57547 -0.64943,-0.87823 -0.64943,-2.65787 0,-1.77964 0.074,-2.0824 0.64943,-2.65787 0.77903,-0.77901 1.71308,-0.83137 2.56241,-0.14364 0.56958,0.46124 0.62462,0.70807 0.62462,2.80151 0,2.09344 -0.055,2.34027 -0.62462,2.80151 -0.84933,0.68774 -1.78338,0.63538 -2.56241,-0.14364 z m 2.25168,-0.65611 c 0.15064,-0.28147 0.27389,-1.18227 0.27389,-2.00176 0,-1.77803 -0.33565,-2.51354 -1.14702,-2.51354 -0.98633,0 -1.23423,0.50485 -1.23423,2.51354 0,1.10831 0.13018,2.00872 0.3175,2.19604 0.48607,0.48607 1.4837,0.3778 1.78986,-0.19428 z m -5.28236,0.77637 c 0,-0.14553 0.17859,-0.26459 0.39688,-0.26459 0.21828,0 0.39687,0.11906 0.39687,0.26459 0,0.14552 -0.17859,0.26458 -0.39687,0.26458 -0.21829,0 -0.39688,-0.11906 -0.39688,-0.26458 z m 51.39531,-5.63275 c -1.78263,-0.89834 -3.24114,-1.69732 -3.24114,-1.77551 0,-0.1783 6.52515,-3.43966 6.88186,-3.43966 0.15936,0 0.26189,1.34649 0.26189,3.43958 0,2.58345 -0.0823,3.43578 -0.33073,3.42427 -0.1819,-0.008 -1.78925,-0.75034 -3.57188,-1.64868 z m -61.36858,-7.44571 c -0.53159,-0.46051 -0.66171,-0.72517 -0.45829,-0.93232 0.20476,-0.20849 0.41933,-0.13975 0.76861,0.2462 0.86224,0.95276 2.25462,0.54811 2.25462,-0.65522 0,-0.68148 -0.47519,-1.19062 -1.11125,-1.19062 -0.70072,0 -0.57945,-0.50303 0.19199,-0.79632 0.36753,-0.13975 0.73803,-0.43598 0.82335,-0.65828 0.37032,-0.96504 -1.32577,-1.63177 -2.02076,-0.79436 -0.41738,0.50292 -0.79375,0.51001 -0.79375,0.0151 0,-0.50488 1.02523,-1.20562 1.76391,-1.20562 0.32331,0 0.92028,0.28596 1.3266,0.63545 0.70313,0.60481 0.72231,0.68095 0.39765,1.57879 -0.24624,0.68096 -0.26364,1.08807 -0.0625,1.46381 0.48105,0.89887 0.32214,1.80551 -0.41858,2.38815 -0.91846,0.72247 -1.75246,0.69279 -2.66155,-0.0947 z m 5.33104,-0.006 c -0.57545,-0.5755 -0.64944,-0.87826 -0.64944,-2.6579 0,-1.77964 0.074,-2.08241 0.64944,-2.65787 0.35718,-0.35719 0.95791,-0.64942 1.33494,-0.64942 0.37703,0 0.97775,0.29223 1.33494,0.64942 0.57545,0.57546 0.64943,0.87823 0.64943,2.65787 0,1.77964 -0.074,2.0824 -0.64943,2.65787 -0.35719,0.35719 -0.95791,0.64942 -1.33494,0.64942 -0.37703,0 -0.97776,-0.29223 -1.33494,-0.64942 z m 2.20806,-0.46186 c 0.18732,-0.18733 0.3175,-1.08773 0.3175,-2.19604 0,-2.00869 -0.24789,-2.51354 -1.23423,-2.51354 -0.81137,0 -1.14702,0.73551 -1.14702,2.51354 0,0.81949 0.12325,1.72029 0.27389,2.00176 0.30616,0.57208 1.30379,0.68035 1.78986,0.19428 z m 5.46485,0.46183 c -0.57545,-0.57547 -0.64943,-0.87823 -0.64943,-2.65787 0,-1.77964 0.074,-2.08241 0.64943,-2.65787 0.77903,-0.77902 1.71308,-0.83138 2.56241,-0.14365 0.56958,0.46125 0.62462,0.70808 0.62462,2.80152 0,2.09343 -0.055,2.34026 -0.62462,2.80151 -0.84933,0.68773 -1.78338,0.63537 -2.56241,-0.14364 z m 2.25168,-0.65611 c 0.15064,-0.28147 0.27389,-1.18227 0.27389,-2.00176 0,-1.77803 -0.33565,-2.51354 -1.14702,-2.51354 -0.98633,0 -1.23423,0.50485 -1.23423,2.51354 0,1.10831 0.13018,2.00871 0.3175,2.19604 0.48607,0.48607 1.4837,0.3778 1.78986,-0.19428 z m -5.28236,0.77636 c 0,-0.14552 0.17859,-0.26458 0.39688,-0.26458 0.21828,0 0.39687,0.11906 0.39687,0.26458 0,0.14552 -0.17859,0.26459 -0.39687,0.26459 -0.21829,0 -0.39688,-0.11907 -0.39688,-0.26459 z m 63.0541,-18.37893 c -1.14742,-0.49903 -1.67077,-1.6247 -1.67077,-3.59365 0,-1.91948 0.51717,-2.9713 1.74816,-3.55542 1.05191,-0.49919 1.72348,-0.50544 2.86925,-0.0267 0.90298,0.3773 1.46801,1.0921 1.46801,1.85711 0,0.64551 -1.05418,0.49602 -1.74296,-0.2472 -0.74011,-0.79859 -1.51352,-0.84455 -2.22579,-0.13229 -0.41158,0.41159 -0.52917,0.88194 -0.52917,2.11667 0,1.23473 0.11759,1.70508 0.52917,2.11666 0.71227,0.71226 1.48568,0.6663 2.22579,-0.13229 0.68878,-0.74321 1.74296,-0.8927 1.74296,-0.2472 0,0.76502 -0.56503,1.47982 -1.46801,1.85711 -1.10914,0.46342 -1.8592,0.46017 -2.94664,-0.0127 z m -5.37493,-5.16898 c -0.29104,-0.29104 -0.52917,-0.70776 -0.52917,-0.92604 0,-0.55296 0.95887,-1.45521 1.54649,-1.45521 0.63496,0 1.36393,0.81621 1.36393,1.52717 0,0.56647 -0.89403,1.38324 -1.51408,1.38324 -0.18591,0 -0.57613,-0.23812 -0.86717,-0.52916 z m 1.5875,-0.93874 c 0,-0.53494 -0.50425,-0.73425 -0.9409,-0.37185 -0.28569,0.23709 -0.31252,0.41407 -0.10136,0.6685 0.33937,0.40891 1.04226,0.20886 1.04226,-0.29665 z"
         id="path896"
         inkscape:connector-curvature="0" />
      <path
         sodipodi:nodetypes="ccccccccccscccccccscccccccccccccccscccccscscsccsccccccsccccccccccccsccccccccccccscscscscsssscscscscscscsssscsccccccccsssssccccccscccccccccscccscccsssssscscscscsccssscccsccscccssscccsscsccsssssscccssccccsscscscscscsssscscsccscccsssscssssssssscscccsscccsscccccccscscscscccssscccsccscccsssccssssscsccsccsccscccsssssssccs"
         style="fill:#5f5a5c;stroke-width:0.26458332"
         d="m 144.38689,289.27258 c -10.49198,-2.10441 -18.87367,-10.04255 -21.62009,-20.47594 -0.88868,-3.37603 -1.00586,-9.33622 -0.24718,-12.57324 0.95134,-4.05908 2.60927,-7.684 4.92151,-10.7605 1.59625,-2.12386 4.77805,-5.18263 6.75989,-6.49848 l 1.46939,-0.97563 -0.0735,-3.46336 -0.0735,-3.46337 -3.42911,-0.0745 c -2.33603,-0.0507 -3.49441,-0.17724 -3.63397,-0.39687 -0.11267,-0.17735 -0.20486,-1.0368 -0.20486,-1.90992 0,-0.87313 0.0922,-1.73258 0.20486,-1.90993 0.13956,-0.21963 1.29794,-0.34612 3.63397,-0.39687 l 3.42911,-0.0744 v -4.10105 -4.10104 l -3.42911,-0.0745 c -2.33603,-0.0507 -3.49441,-0.17725 -3.63397,-0.39688 -0.11267,-0.17735 -0.20486,-1.03679 -0.20486,-1.90992 0,-0.87312 0.0922,-1.73257 0.20486,-1.90992 0.13956,-0.21963 1.29794,-0.34613 3.63397,-0.39687 l 3.42911,-0.0745 v -4.10104 -4.10104 l -3.42911,-0.0744 c -2.33603,-0.0508 -3.49441,-0.17725 -3.63397,-0.39688 -0.26607,-0.41875 -0.26607,-3.40109 0,-3.81984 0.13956,-0.21963 1.29794,-0.34613 3.63397,-0.39688 l 3.42911,-0.0744 v -4.10104 -4.10104 l -3.42911,-0.0745 c -2.33603,-0.0507 -3.49441,-0.17724 -3.63397,-0.39687 -0.26607,-0.41876 -0.26607,-3.40109 0,-3.81984 0.13956,-0.21963 1.29794,-0.34613 3.63397,-0.39688 l 3.42911,-0.0745 v -4.10104 -4.10105 l -3.42911,-0.0744 c -2.33603,-0.0508 -3.49441,-0.17724 -3.63397,-0.39687 -0.11267,-0.17735 -0.20486,-1.0368 -0.20486,-1.90993 0,-0.87312 0.0922,-1.73257 0.20486,-1.90992 0.13956,-0.21963 1.29794,-0.34612 3.63397,-0.39687 l 3.42911,-0.0745 0.1714,-5.95312 c 0.12841,-4.46003 0.28405,-6.31812 0.62055,-7.40833 1.4706,-4.76462 4.96897,-8.25977 9.64097,-9.63205 1.86615,-0.54814 5.57843,-0.54814 7.44458,0 4.63405,1.36115 8.05727,4.76871 9.67625,9.63205 0.45894,1.37858 0.48858,3.44357 0.56299,39.22183 l 0.0786,37.76662 1.43359,0.91707 c 3.16866,2.02698 7.1047,6.38361 8.97691,9.93614 2.38149,4.51892 3.20979,8.01516 3.1655,13.36146 -0.0281,3.39682 -0.1342,4.34559 -0.73594,6.58381 -2.84226,10.57201 -11.19679,18.39746 -21.81019,20.42895 -2.39117,0.45768 -8.02731,0.44514 -10.36162,-0.023 z m 10.98021,-4.88545 c 8.55358,-2.20673 15.11936,-9.07343 16.95504,-17.73213 0.48247,-2.27574 0.47362,-6.91222 -0.0176,-9.24762 -1.47384,-7.00635 -5.71814,-12.49531 -12.53448,-16.21025 l -0.8225,-0.44828 -0.0704,-39.10693 -0.0704,-39.10695 -0.70649,-1.50719 c -0.90295,-1.92633 -2.74636,-3.76749 -4.66548,-4.65977 -1.25776,-0.58478 -1.87941,-0.70075 -3.75616,-0.70075 -1.87675,0 -2.4984,0.11597 -3.75616,0.70075 -1.91912,0.89228 -3.76253,2.73344 -4.66548,4.65977 l -0.70648,1.50719 -0.0704,39.10695 -0.0704,39.10693 -0.82249,0.44828 c -6.81635,3.71494 -11.06065,9.2039 -12.53448,16.21025 -0.49127,2.3354 -0.50012,6.97188 -0.0177,9.24762 2.35311,11.09929 12.22381,18.84457 23.43734,18.39068 1.57656,-0.0638 3.69359,-0.34864 4.89479,-0.65855 z m -43.93286,-53.57762 c -0.57545,-0.57547 -0.64943,-0.87823 -0.64943,-2.65787 0,-1.77964 0.074,-2.0824 0.64943,-2.65787 0.35719,-0.35719 0.95791,-0.64942 1.33495,-0.64942 0.37703,0 0.97775,0.29223 1.33494,0.64942 0.57545,0.57547 0.64943,0.87823 0.64943,2.65787 0,1.77964 -0.074,2.0824 -0.64943,2.65787 -0.35719,0.35719 -0.95791,0.64942 -1.33494,0.64942 -0.37704,0 -0.97776,-0.29223 -1.33495,-0.64942 z m 2.20807,-0.46183 c 0.18732,-0.18732 0.3175,-1.08773 0.3175,-2.19604 0,-2.00869 -0.2479,-2.51354 -1.23423,-2.51354 -0.81137,0 -1.14702,0.73551 -1.14702,2.51354 0,0.81949 0.12325,1.72029 0.27389,2.00176 0.30616,0.57208 1.30379,0.68035 1.78986,0.19428 z m 5.46485,0.46183 c -0.57545,-0.57547 -0.64943,-0.87823 -0.64943,-2.65787 0,-1.77964 0.074,-2.0824 0.64943,-2.65787 0.35719,-0.35719 0.95791,-0.64942 1.33494,-0.64942 0.37703,0 0.97776,0.29223 1.33494,0.64942 0.57545,0.57547 0.64944,0.87823 0.64944,2.65787 0,1.77964 -0.074,2.0824 -0.64944,2.65787 -0.35718,0.35719 -0.95791,0.64942 -1.33494,0.64942 -0.37703,0 -0.97775,-0.29223 -1.33494,-0.64942 z m 2.20807,-0.46183 c 0.18732,-0.18732 0.3175,-1.08773 0.3175,-2.19604 0,-2.00869 -0.2479,-2.51354 -1.23424,-2.51354 -0.81137,0 -1.14701,0.73551 -1.14701,2.51354 0,0.81949 0.12325,1.72029 0.27389,2.00176 0.30616,0.57208 1.30379,0.68035 1.78986,0.19428 z m -13.76139,-1.58208 -0.0763,-2.46604 -0.72761,-0.0837 c -0.94755,-0.10903 -0.92393,-0.43222 0.0614,-0.84037 1.4699,-0.60883 1.61886,-0.3356 1.53511,2.81594 -0.0511,1.92166 -0.17785,2.86165 -0.3957,2.93393 -0.23224,0.077 -0.34159,-0.57311 -0.39688,-2.35974 z m 8.78722,2.16416 c 0,-0.14552 0.11906,-0.26458 0.26458,-0.26458 0.14552,0 0.26459,0.11906 0.26459,0.26458 0,0.14552 -0.11907,0.26459 -0.26459,0.26459 -0.14552,0 -0.26458,-0.11907 -0.26458,-0.26459 z m -13.49375,-2.08835 c 0,-0.35102 0.79744,-0.59195 1.36403,-0.41214 0.27266,0.0865 0.42745,0.26783 0.34399,0.40288 -0.19438,0.31451 -1.70802,0.32271 -1.70802,0.009 z m 9.62133,-10.65652 c -0.79349,-0.3842 -1.15466,-1.32993 -1.15466,-3.02342 0,-1.87693 0.53257,-2.91772 1.61461,-3.15537 1.75394,-0.38523 2.77244,1.27948 2.46941,4.03617 -0.21992,2.00059 -1.41598,2.87541 -2.92936,2.14262 z m 1.94416,-1.27804 c 0.42762,-0.8495 0.42737,-2.59085 -5.3e-4,-3.43959 -0.41389,-0.82102 -1.48218,-1.02356 -1.95903,-0.37142 -0.40848,0.55862 -0.45756,2.95278 -0.0808,3.94364 0.34904,0.91803 1.55081,0.83992 2.04036,-0.13263 z m 5.72876,1.27804 c -0.79349,-0.3842 -1.15467,-1.32993 -1.15467,-3.02342 0,-1.87693 0.53258,-2.91772 1.61461,-3.15537 1.75394,-0.38523 2.77245,1.27948 2.46942,4.03617 -0.21992,2.00059 -1.41598,2.87541 -2.92936,2.14262 z m 1.94416,-1.27804 c 0.42761,-0.8495 0.42737,-2.59085 -5.3e-4,-3.43959 -0.41389,-0.82102 -1.48218,-1.02356 -1.95903,-0.37142 -0.40849,0.55862 -0.45757,2.95278 -0.0808,3.94364 0.34903,0.91803 1.55081,0.83992 2.04036,-0.13263 z m -5.21549,1.05833 c 0,-0.14552 0.11906,-0.26458 0.26458,-0.26458 0.14552,0 0.26458,0.11906 0.26458,0.26458 0,0.14552 -0.11906,0.26458 -0.26458,0.26458 -0.14552,0 -0.26458,-0.11906 -0.26458,-0.26458 z m -5.1714,-13.08483 c -0.57545,-0.57547 -0.64944,-0.87824 -0.64944,-2.65788 0,-1.77964 0.074,-2.0824 0.64944,-2.65787 0.35718,-0.35719 0.95791,-0.64942 1.33494,-0.64942 0.37703,0 0.97775,0.29223 1.33494,0.64942 0.57545,0.57547 0.64943,0.87823 0.64943,2.65787 0,1.77964 -0.074,2.08241 -0.64943,2.65788 -0.35719,0.35718 -0.95791,0.64941 -1.33494,0.64941 -0.37703,0 -0.97776,-0.29223 -1.33494,-0.64941 z m 2.20806,-0.46183 c 0.18732,-0.18733 0.3175,-1.08773 0.3175,-2.19605 0,-2.00869 -0.24789,-2.51354 -1.23423,-2.51354 -0.81137,0 -1.14702,0.73552 -1.14702,2.51354 0,0.8195 0.12325,1.7203 0.27389,2.00176 0.30616,0.57208 1.30379,0.68035 1.78986,0.19429 z m 5.46485,0.46183 c -0.57545,-0.57547 -0.64943,-0.87824 -0.64943,-2.65788 0,-1.77964 0.074,-2.0824 0.64943,-2.65787 0.77903,-0.77901 1.71308,-0.83137 2.56241,-0.14364 0.56958,0.46125 0.62462,0.70808 0.62462,2.80151 0,2.09344 -0.055,2.34027 -0.62462,2.80152 -0.84933,0.68773 -1.78338,0.63537 -2.56241,-0.14364 z m 2.25168,-0.65612 c 0.15064,-0.28146 0.27389,-1.18226 0.27389,-2.00176 0,-1.77802 -0.33565,-2.51354 -1.14702,-2.51354 -0.98633,0 -1.23423,0.50485 -1.23423,2.51354 0,1.10832 0.13018,2.00872 0.3175,2.19605 0.48607,0.48606 1.4837,0.37779 1.78986,-0.19429 z m -13.83722,0.86455 c -0.097,-0.097 -0.17639,-1.22809 -0.17639,-2.51354 0,-2.31656 -0.006,-2.33714 -0.66146,-2.33714 -0.85262,0 -0.84666,-0.35983 0.0125,-0.75129 1.40007,-0.63791 1.44276,-0.55694 1.44276,2.73566 0,2.78419 -0.12396,3.35971 -0.61736,2.86631 z m 8.55486,-0.0882 c 0,-0.14552 0.17859,-0.26458 0.39688,-0.26458 0.21828,0 0.39687,0.11906 0.39687,0.26458 0,0.14552 -0.17859,0.26458 -0.39687,0.26458 -0.21829,0 -0.39688,-0.11906 -0.39688,-0.26458 z m -10.31875,-12.86134 c 0,-0.23427 0.59551,-1.07749 1.32335,-1.87386 0.72783,-0.7964 1.39597,-1.73736 1.48475,-2.09106 0.32738,-1.30442 -1.20097,-1.94577 -2.14664,-0.90082 -0.56242,0.62145 -0.92604,0.68095 -0.92604,0.1515 0,-0.4888 1.25362,-1.47442 1.87531,-1.47442 0.86237,0 1.83813,0.60629 1.99746,1.24113 0.21359,0.85101 -0.29347,1.95922 -1.37694,3.00937 -1.20191,1.16494 -1.1589,1.52144 0.19558,1.62126 0.60716,0.0447 1.15286,0.23019 1.21268,0.41209 0.0801,0.24368 -0.38446,0.33073 -1.76538,0.33073 -1.54631,0 -1.87413,-0.0745 -1.87413,-0.42592 z m 5.67652,-0.2235 c -0.57545,-0.57547 -0.64944,-0.87823 -0.64944,-2.65787 0,-1.77964 0.074,-2.0824 0.64944,-2.65787 0.35718,-0.35719 0.95791,-0.64942 1.33494,-0.64942 0.37703,0 0.97775,0.29223 1.33494,0.64942 0.57545,0.57547 0.64943,0.87823 0.64943,2.65787 0,1.77964 -0.074,2.0824 -0.64943,2.65787 -0.35719,0.35719 -0.95791,0.64942 -1.33494,0.64942 -0.37703,0 -0.97776,-0.29223 -1.33494,-0.64942 z m 2.20806,-0.46183 c 0.18732,-0.18732 0.3175,-1.08773 0.3175,-2.19604 0,-2.00869 -0.24789,-2.51354 -1.23423,-2.51354 -0.81137,0 -1.14702,0.73551 -1.14702,2.51354 0,0.81949 0.12325,1.72029 0.27389,2.00176 0.30616,0.57208 1.30379,0.68035 1.78986,0.19428 z m 5.46485,0.46183 c -0.57545,-0.57547 -0.64943,-0.87823 -0.64943,-2.65787 0,-1.77964 0.074,-2.0824 0.64943,-2.65787 0.77903,-0.77901 1.71308,-0.83137 2.56241,-0.14364 0.56958,0.46124 0.62462,0.70807 0.62462,2.80151 0,2.09344 -0.055,2.34027 -0.62462,2.80151 -0.84933,0.68774 -1.78338,0.63538 -2.56241,-0.14364 z m 2.25168,-0.65611 c 0.15064,-0.28147 0.27389,-1.18227 0.27389,-2.00176 0,-1.77803 -0.33565,-2.51354 -1.14702,-2.51354 -0.98633,0 -1.23423,0.50485 -1.23423,2.51354 0,1.10831 0.13018,2.00872 0.3175,2.19604 0.48607,0.48607 1.4837,0.3778 1.78986,-0.19428 z m -5.28236,0.77637 c 0,-0.14553 0.17859,-0.26459 0.39688,-0.26459 0.21828,0 0.39687,0.11906 0.39687,0.26459 0,0.14552 -0.17859,0.26458 -0.39687,0.26458 -0.21829,0 -0.39688,-0.11906 -0.39688,-0.26458 z m 51.39531,-5.63275 c -1.78263,-0.89834 -3.24114,-1.69732 -3.24114,-1.77551 0,-0.1783 6.52515,-3.43966 6.88186,-3.43966 0.15936,0 0.26189,1.34649 0.26189,3.43958 0,2.58345 -0.0823,3.43578 -0.33073,3.42427 -0.1819,-0.008 -1.78925,-0.75034 -3.57188,-1.64868 z m -61.36858,-7.44571 c -0.53159,-0.46051 -0.66171,-0.72517 -0.45829,-0.93232 0.20476,-0.20849 0.41933,-0.13975 0.76861,0.2462 0.86224,0.95276 2.25462,0.54811 2.25462,-0.65522 0,-0.68148 -0.47519,-1.19062 -1.11125,-1.19062 -0.70072,0 -0.57945,-0.50303 0.19199,-0.79632 0.36753,-0.13975 0.73803,-0.43598 0.82335,-0.65828 0.37032,-0.96504 -1.32577,-1.63177 -2.02076,-0.79436 -0.41738,0.50292 -0.79375,0.51001 -0.79375,0.0151 0,-0.50488 1.02523,-1.20562 1.76391,-1.20562 0.32331,0 0.92028,0.28596 1.3266,0.63545 0.70313,0.60481 0.72231,0.68095 0.39765,1.57879 -0.24624,0.68096 -0.26364,1.08807 -0.0625,1.46381 0.48105,0.89887 0.32214,1.80551 -0.41858,2.38815 -0.91846,0.72247 -1.75246,0.69279 -2.66155,-0.0947 z m 5.33104,-0.006 c -0.57545,-0.5755 -0.64944,-0.87826 -0.64944,-2.6579 0,-1.77964 0.074,-2.08241 0.64944,-2.65787 0.35718,-0.35719 0.95791,-0.64942 1.33494,-0.64942 0.37703,0 0.97775,0.29223 1.33494,0.64942 0.57545,0.57546 0.64943,0.87823 0.64943,2.65787 0,1.77964 -0.074,2.0824 -0.64943,2.65787 -0.35719,0.35719 -0.95791,0.64942 -1.33494,0.64942 -0.37703,0 -0.97776,-0.29223 -1.33494,-0.64942 z m 2.20806,-0.46186 c 0.18732,-0.18733 0.3175,-1.08773 0.3175,-2.19604 0,-2.00869 -0.24789,-2.51354 -1.23423,-2.51354 -0.81137,0 -1.14702,0.73551 -1.14702,2.51354 0,0.81949 0.12325,1.72029 0.27389,2.00176 0.30616,0.57208 1.30379,0.68035 1.78986,0.19428 z m 5.46485,0.46183 c -0.57545,-0.57547 -0.64943,-0.87823 -0.64943,-2.65787 0,-1.77964 0.074,-2.08241 0.64943,-2.65787 0.77903,-0.77902 1.71308,-0.83138 2.56241,-0.14365 0.56958,0.46125 0.62462,0.70808 0.62462,2.80152 0,2.09343 -0.055,2.34026 -0.62462,2.80151 -0.84933,0.68773 -1.78338,0.63537 -2.56241,-0.14364 z m 2.25168,-0.65611 c 0.15064,-0.28147 0.27389,-1.18227 0.27389,-2.00176 0,-1.77803 -0.33565,-2.51354 -1.14702,-2.51354 -0.98633,0 -1.23423,0.50485 -1.23423,2.51354 0,1.10831 0.13018,2.00871 0.3175,2.19604 0.48607,0.48607 1.4837,0.3778 1.78986,-0.19428 z m -5.28236,0.77636 c 0,-0.14552 0.17859,-0.26458 0.39688,-0.26458 0.21828,0 0.39687,0.11906 0.39687,0.26458 0,0.14552 -0.17859,0.26459 -0.39687,0.26459 -0.21829,0 -0.39688,-0.11907 -0.39688,-0.26459 z m 63.0541,-18.37893 c -1.14742,-0.49903 -1.67077,-1.6247 -1.67077,-3.59365 0,-1.91948 0.51717,-2.9713 1.74816,-3.55542 1.05191,-0.49919 1.72348,-0.50544 2.86925,-0.0267 0.90298,0.3773 1.46801,1.0921 1.46801,1.85711 0,0.64551 -1.05418,0.49602 -1.74296,-0.2472 -0.74011,-0.79859 -1.51352,-0.84455 -2.22579,-0.13229 -0.41158,0.41159 -0.52917,0.88194 -0.52917,2.11667 0,1.23473 0.11759,1.70508 0.52917,2.11666 0.71227,0.71226 1.48568,0.6663 2.22579,-0.13229 0.68878,-0.74321 1.74296,-0.8927 1.74296,-0.2472 0,0.76502 -0.56503,1.47982 -1.46801,1.85711 -1.10914,0.46342 -1.8592,0.46017 -2.94664,-0.0127 z m -5.37493,-5.16898 c -0.29104,-0.29104 -0.52917,-0.70776 -0.52917,-0.92604 0,-0.55296 0.95887,-1.45521 1.54649,-1.45521 0.63496,0 1.36393,0.81621 1.36393,1.52717 0,0.56647 -0.89403,1.38324 -1.51408,1.38324 -0.18591,0 -0.57613,-0.23812 -0.86717,-0.52916 z m 1.5875,-0.93874 c 0,-0.53494 -0.50425,-0.73425 -0.9409,-0.37185 -0.28569,0.23709 -0.31252,0.41407 -0.10136,0.6685 0.33937,0.40891 1.04226,0.20886 1.04226,-0.29665 z"
         id="path892"
         inkscape:connector-curvature="0" />
      <path
         sodipodi:nodetypes="cccsccccscscccscscscccsccscccsccscccsscscccscccccscccccccccccccccccscccccccccccssscssssssssssccccsccccscc"
         style="fill:#000000;stroke-width:0.26458332"
         d="m 144.12231,288.88444 c -4.36701,-0.93401 -8.17757,-2.72677 -11.577,-5.44666 -4.78874,-3.83146 -7.86004,-8.64507 -9.52206,-14.9238 -0.57343,-2.1663 -0.66889,-3.09332 -0.66889,-6.49568 0,-3.41082 0.0948,-4.3271 0.67451,-6.51779 0.88034,-3.32695 2.03335,-5.94014 3.80285,-8.61878 1.90966,-2.89084 3.66694,-4.77128 6.2716,-6.71116 1.1855,-0.88291 2.36381,-1.77429 2.61847,-1.98088 0.3941,-0.31967 0.46302,-0.84534 0.46302,-3.53152 0,-1.73578 -0.0723,-3.34428 -0.1606,-3.57447 -0.13538,-0.3528 -0.71697,-0.41852 -3.70417,-0.41852 h -3.54356 v -1.98437 -1.98438 h 3.54356 c 2.9872,0 3.56879,-0.0657 3.70417,-0.41852 0.0883,-0.23018 0.1606,-2.06592 0.1606,-4.0794 0,-2.01347 -0.0723,-3.84921 -0.1606,-4.07939 -0.13538,-0.3528 -0.71697,-0.41852 -3.70417,-0.41852 h -3.54356 v -1.98438 -1.98437 h 3.38666 c 2.2813,0 3.4903,-0.10364 3.70417,-0.3175 0.33447,-0.33446 0.46954,-7.44511 0.1569,-8.25982 -0.13538,-0.35279 -0.71697,-0.41851 -3.70417,-0.41851 h -3.54356 v -1.98438 -1.98437 h 3.38666 c 2.2813,0 3.4903,-0.10364 3.70417,-0.3175 0.33447,-0.33446 0.46954,-7.44511 0.1569,-8.25982 -0.13538,-0.3528 -0.71697,-0.41852 -3.70417,-0.41852 h -3.54356 v -1.98437 -1.98438 h 3.43027 c 3.12062,0 3.455,-0.0462 3.70417,-0.51178 0.29025,-0.54234 0.38595,-7.35499 0.11329,-8.06553 -0.13538,-0.3528 -0.71697,-0.41852 -3.70417,-0.41852 h -3.54356 v -1.98438 -1.98437 h 3.43027 c 3.12062,0 3.455,-0.0462 3.70417,-0.51178 0.16298,-0.30454 0.27651,-2.74188 0.28036,-6.01927 0.004,-3.02911 0.12916,-6.03997 0.27912,-6.69076 1.08323,-4.70093 5.33958,-8.95728 10.04052,-10.04052 1.52005,-0.35025 4.81523,-0.35025 6.33528,0 4.70094,1.08324 8.95729,5.33959 10.04052,10.04052 0.18014,0.78176 0.27485,13.9102 0.27912,38.69055 0.006,35.39722 0.0325,37.52839 0.46949,37.88285 0.25466,0.20659 1.44038,1.10355 2.63493,1.99329 4.90347,3.65229 8.36546,8.92432 10.05854,15.31753 0.58217,2.19831 0.67436,3.09514 0.66993,6.51779 -0.004,3.37979 -0.1037,4.34375 -0.66944,6.49568 -2.44996,9.31916 -8.70869,16.22894 -17.5624,19.38925 -4.32289,1.54305 -10.18213,1.93564 -14.64458,0.98121 z m 10.24195,-3.96031 c 13.15868,-2.7155 21.26358,-15.78978 17.94155,-28.94211 -0.53614,-2.12262 -2.23562,-5.67137 -3.68897,-7.7031 -1.95227,-2.72918 -4.29555,-4.72409 -8.68224,-7.39151 l -0.72416,-0.44035 -0.0696,-38.95603 -0.0696,-38.95606 -0.74071,-1.5875 c -0.96481,-2.06782 -2.76339,-3.8745 -4.78633,-4.80784 -1.37169,-0.63289 -1.95755,-0.74594 -3.86567,-0.74594 -1.90812,0 -2.49398,0.11305 -3.86567,0.74594 -2.02294,0.93334 -3.82152,2.74002 -4.78633,4.80784 l -0.74071,1.5875 -0.0696,38.95606 -0.0696,38.95603 -0.72416,0.44035 c -5.92927,3.6054 -8.54621,6.30243 -10.89461,11.22796 -4.33559,9.09355 -2.19548,20.14144 5.23406,27.01989 5.58593,5.17157 13.21116,7.31414 20.60229,5.78887 z M 107.47752,225.6381 c 0.0899,-0.14552 0.21603,-0.26459 0.2802,-0.26459 0.0642,0 0.11667,0.11907 0.11667,0.26459 0,0.14552 -0.12609,0.26458 -0.2802,0.26458 -0.1541,0 -0.20661,-0.11906 -0.11667,-0.26458 z m 0.13229,-25.92917 c 0,-0.14552 0.11906,-0.26458 0.26458,-0.26458 0.14552,0 0.26459,0.11906 0.26459,0.26458 0,0.14552 -0.11907,0.26459 -0.26459,0.26459 -0.14552,0 -0.26458,-0.11907 -0.26458,-0.26459 z m -1.32292,-7.67291 c 0,-0.14553 0.11907,-0.26459 0.26459,-0.26459 0.14552,0 0.26458,0.11906 0.26458,0.26459 0,0.14552 -0.11906,0.26458 -0.26458,0.26458 -0.14552,0 -0.26459,-0.11906 -0.26459,-0.26458 z m 73.6532,-31.39544 c -0.30934,-0.065 -0.83972,-0.41333 -1.17863,-0.77409 -0.82639,-0.87963 -1.04169,-3.5841 -0.38622,-4.85161 0.54263,-1.04934 1.96737,-1.71135 3.14687,-1.46217 0.92234,0.19484 2.02312,1.0763 2.02312,1.62005 0,0.55126 -0.54403,0.41198 -1.2138,-0.3107 -0.83424,-0.90017 -2.0117,-0.88479 -2.73575,0.0357 -0.77689,0.98764 -0.78223,3.71454 -0.009,4.54462 0.74153,0.79594 1.96466,0.75922 2.74464,-0.0824 0.66978,-0.72268 1.2138,-0.86195 1.2138,-0.3107 0,0.97632 -2.10659,1.90617 -3.60514,1.59131 z"
         id="path890"
         inkscape:connector-curvature="0" />
    </g>
    <path
       style="fill:#008000;stroke:#008000;stroke-width:1.065;stroke-linecap:butt;stroke-linejoin:miter;stroke-miterlimit:4;stroke-dasharray:none;stroke-opacity:1;marker-end:url(#DotL)"
       d="M 136.07143,222.91666 105.07738,195.70238"
       id="path938"
       inkscape:connector-curvature="0"
       sodipodi:nodetypes="cc" />
    <path
       sodipodi:nodetypes="cc"
       inkscape:connector-curvature="0"
       id="path1412"
       d="m 78.354453,210.26539 -21.658023,22.47865 -31.973999,0"
       style="fill:none;stroke:#008000;stroke-width:1.06500006;stroke-linecap:butt;stroke-linejoin:miter;stroke-miterlimit:4;stroke-dasharray:none;stroke-opacity:1;marker-start:url(#Arrow1Mstart)" />
    <text
       xml:space="preserve"
       style="font-style:normal;font-weight:normal;font-size:10.58333302px;line-height:1.25;font-family:sans-serif;letter-spacing:0px;word-spacing:0px;fill:#008000;fill-opacity:1;stroke:none;stroke-width:0.26458332;"
       x="23.386087"
       y="230.049"
       id="text2806"><tspan
         sodipodi:role="line"
         id="tspan2804"
         x="23.386087"
         y="230.049"
         style="stroke-width:0.26458332;fill:#008000;">radius</tspan></text>
    <path
       style="fill:#008000;stroke:#008000;stroke-width:1.05833328;stroke-linecap:butt;stroke-linejoin:miter;stroke-miterlimit:4;stroke-dasharray:none;stroke-opacity:1"
       d="M 85.119388,152.94172 H 175.72376"
       id="path2808"
       inkscape:connector-curvature="0" />
    <path
       inkscape:connector-curvature="0"
       id="path2810"
       d="m 101.00158,106.55079 h 7.78554"
       style="fill:none;stroke:#008000;stroke-width:1.05833328;stroke-linecap:butt;stroke-linejoin:miter;stroke-miterlimit:4;stroke-dasharray:none;stroke-opacity:1;marker-end:url(#Arrow1Mend)"
       sodipodi:nodetypes="cc" />
    <path
       sodipodi:nodetypes="cc"
       style="fill:#008000;stroke:#008000;stroke-width:1.05833328;stroke-linecap:butt;stroke-linejoin:miter;stroke-miterlimit:4;stroke-dasharray:none;stroke-opacity:1;marker-end:url(#marker3880)"
       d="M 129.85621,152.92134 H 114.88912"
       id="path3876"
       inkscape:connector-curvature="0" />
    <text
       xml:space="preserve"
       style="font-style:normal;font-weight:normal;font-size:10.58333302px;line-height:1.25;font-family:sans-serif;letter-spacing:0px;word-spacing:0px;fill:#000000;fill-opacity:1;stroke:none;stroke-width:0.26458332"
       x="126.53564"
       y="150.59982"
       id="text2806-3"><tspan
         sodipodi:role="line"
         id="tspan2804-6"
         x="126.53564"
         y="150.59982"
         style="stroke-width:0.26458332">barWidth</tspan></text>
    <path
       inkscape:connector-curvature="0"
       id="path5088"
       d="m 101.00158,106.55079 83.04485,0"
       style="fill:none;stroke:#008000;stroke-width:1.05833328;stroke-linecap:butt;stroke-linejoin:miter;stroke-miterlimit:4;stroke-dasharray:none;stroke-opacity:1"
       sodipodi:nodetypes="cc" />
    <path
       sodipodi:nodetypes="cc"
       style="fill:none;stroke:#008000;stroke-width:1.05833328;stroke-linecap:butt;stroke-linejoin:miter;stroke-miterlimit:4;stroke-dasharray:none;stroke-opacity:1;marker-end:url(#marker6330)"
       d="m 122.02306,106.55079 h -7.78554"
       id="path6326"
       inkscape:connector-curvature="0" />
    <text
       id="text6976"
       y="104.58687"
       x="133.46584"
       style="font-style:normal;font-weight:normal;font-size:10.58333302px;line-height:1.25;font-family:sans-serif;letter-spacing:0px;word-spacing:0px;fill:#008000;fill-opacity:1;stroke:none;stroke-width:0.26458332;"
       xml:space="preserve"><tspan
         style="stroke-width:0.26458332;fill:#008000;"
         y="104.58687"
         x="133.46584"
         id="tspan6974"
         sodipodi:role="line">thickness</tspan></text>
    <path
       sodipodi:nodetypes="cc"
       style="fill:#008000;stroke:#008000;stroke-width:1.05833328;stroke-linecap:butt;stroke-linejoin:miter;stroke-miterlimit:4;stroke-dasharray:none;stroke-opacity:1;marker-end:url(#marker6988)"
       d="m 77.333848,152.94172 h 7.78554"
       id="path6984"
       inkscape:connector-curvature="0" />
    <g
       aria-label="{"
       style="font-style:normal;font-weight:normal;font-size:10.58333302px;line-height:1.25;font-family:sans-serif;letter-spacing:0px;word-spacing:0px;fill:#008000;fill-opacity:1;stroke:none;stroke-width:0.26458332"
       id="text8846"
       transform="matrix(1.4685785,0,0,1.4685785,137.6026,-58.561417)">
      <path
         d="m -60.337784,149.44024 v 0.74414 h -0.320394 c -0.857829,0 -1.43316,-0.12746 -1.725993,-0.3824 -0.289388,-0.25494 -0.434082,-17.39404 -0.434082,-18.15541 v -1.23507 c 0,-0.52021 -0.09302,-0.88022 -0.279052,-1.08003 -0.186035,-0.19982 -0.523655,-0.29973 -1.012858,-0.29973 h -0.315227 v -0.73897 h 0.315227 c 0.492649,0 0.830268,-0.0982 1.012858,-0.29456 0.186035,-0.19981 0.279052,-0.55638 0.279052,-1.0697 v -1.24023 c 0,-0.76137 0.144694,-16.00887 0.434082,-16.26036 0.292833,-0.25493 0.868164,-0.3824 1.725993,-0.3824 h 0.320394 v 0.73897 h -0.3514 c -0.485758,0 -0.802707,0.0758 -0.950846,0.22737 -0.148139,0.15159 -0.222209,15.21133 -0.222209,15.69709 v 1.28157 c 0,0.54088 -0.07924,0.93362 -0.237711,1.17823 -0.155029,0.2446 -0.422024,0.40996 -0.800985,0.49609 0.382405,0.093 0.651123,0.26183 0.806152,0.50643 0.155029,0.2446 0.232544,0.63562 0.232544,1.17305 v 1.28158 c 0,0.48576 0.07407,17.43538 0.222209,17.58696 0.148139,0.15159 0.465088,0.22738 0.950846,0.22738 z"
         style="stroke-width:0.26458332;fill:#008000"
         id="path8848"
         inkscape:connector-curvature="0"
         sodipodi:nodetypes="ccscsscsccscsscsccscssccssscsc" />
    </g>
    <text
       id="text8853"
       y="39.334976"
       x="-145.84448"
       style="font-style:normal;font-weight:normal;font-size:10.58333302px;line-height:1.25;font-family:sans-serif;letter-spacing:0px;word-spacing:0px;fill:#008000;fill-opacity:1;stroke:none;stroke-width:0.26458332;"
       xml:space="preserve"
       transform="rotate(-90)"><tspan
         style="stroke-width:0.26458332;fill:#008000;"
         y="39.334976"
         x="-145.84448"
         id="tspan8851"
         sodipodi:role="line">Scale</tspan></text>
    <text
       id="text8857"
       y="233.0728"
       x="120.52596"
       style="font-style:normal;font-weight:normal;font-size:10.58333302px;line-height:1.25;font-family:sans-serif;letter-spacing:0px;word-spacing:0px;fill:#008000;fill-opacity:1;stroke:none;stroke-width:0.26458332;"
       xml:space="preserve"><tspan
         style="fill:#008000;stroke-width:0.26458332;"
         y="233.0728"
         x="120.52596"
         id="tspan8855"
         sodipodi:role="line">Mercury</tspan></text>
    <path
       inkscape:connector-curvature="0"
       id="path8871"
       d="m 102.96946,63.484546 21.68547,15.95817"
       style="fill:#008000;stroke:#008000;stroke-width:1.05833328;stroke-linecap:butt;stroke-linejoin:miter;stroke-miterlimit:4;stroke-dasharray:none;stroke-opacity:1;marker-end:url(#marker8875)"
       sodipodi:nodetypes="cc" />
    <text
       xml:space="preserve"
       style="font-style:normal;font-weight:normal;font-size:10.58333302px;line-height:1.25;font-family:sans-serif;letter-spacing:0px;word-spacing:0px;fill:#008000;fill-opacity:1;stroke:none;stroke-width:0.26458332;"
       x="73.330193"
       y="66.634598"
       id="text9623"><tspan
         sodipodi:role="line"
         id="tspan9621"
         x="73.330193"
         y="66.634598"
         style="stroke-width:0.26458332;fill:#008000;">Label</tspan></text>
    <path
       sodipodi:nodetypes="cc"
       style="fill:#008000;stroke:#008000;stroke-width:1.05833328;stroke-linecap:butt;stroke-linejoin:miter;stroke-miterlimit:4;stroke-dasharray:none;stroke-opacity:1;marker-end:url(#marker9635)"
       d="m 136.64542,127.36197 -13.05957,-9.43244"
       id="path9631"
       inkscape:connector-curvature="0" />
    <text
       id="text10605"
       y="132.65018"
       x="138.81123"
       style="font-style:normal;font-weight:normal;font-size:10.58333302px;line-height:1.25;font-family:sans-serif;letter-spacing:0px;word-spacing:0px;fill:#008000;fill-opacity:1;stroke:none;stroke-width:0.26458332;"
       xml:space="preserve"><tspan
         style="stroke-width:0.26458332;fill:#008000;"
         y="132.65018"
         x="138.81123"
         id="tspan10603"
         sodipodi:role="line">Setpoint</tspan></text>
  </g>
</svg>
